<?xml version="1.0" encoding="utf-8"?>
<!-- Generator: Adobe Illustrator 16.0.0, SVG Export Plug-In . SVG Version: 6.00 Build 0)  -->
<!DOCTYPE svg PUBLIC "-//W3C//DTD SVG 1.1//EN" "http://www.w3.org/Graphics/SVG/1.1/DTD/svg11.dtd">
<svg version="1.1" id="Layer_1" xmlns="http://www.w3.org/2000/svg" xmlns:xlink="http://www.w3.org/1999/xlink" x="0px" y="0px"
	 width="500px" height="500px" viewBox="0 0 500 500" enable-background="new 0 0 500 500" xml:space="preserve">
<path fill="#FFFFFF" d="M256.292,15.983C123.114,12.691,16.333,120.699,17.128,248.745
	c-0.883,126.521,101.265,230.123,226.525,233.387c131.388,3.424,236.255-101.17,239.517-226.495
	C486.6,123.838,381.567,19.081,256.292,15.983z M438.593,224.454c-0.248,16.489-0.236,32.985-0.003,49.476
	c0.059,4.008-0.729,5.299-5.059,5.256c-24.486-0.24-48.978-0.117-73.465-0.117c-24.488,0-48.979,0.096-73.467-0.098
	c-3.774-0.029-4.604,0.943-4.597,4.644c0.138,48.311,0.056,96.62,0.165,144.934c0.009,3.672-0.598,5.099-4.755,5.03
	c-16.821-0.271-33.651-0.23-50.474-0.022c-3.828,0.048-4.948-0.862-4.935-4.85c0.15-48.146,0.02-96.291,0.222-144.437
	c0.019-4.555-1.259-5.313-5.472-5.301c-47.478,0.157-94.957,0.039-142.435,0.204c-4.24,0.015-5.179-1.144-5.117-5.231
	c0.249-16.487,0.256-32.984-0.002-49.475c-0.067-4.258,0.795-5.533,5.356-5.514c47.478,0.199,94.957,0.07,142.435,0.218
	c4.003,0.012,5.24-0.721,5.224-5.033c-0.18-48.145-0.052-96.29-0.22-144.435c-0.015-4.211,1.053-5.194,5.181-5.13
	c16.655,0.256,33.32,0.281,49.975-0.012c4.354-0.077,5.049,1.297,5.037,5.273c-0.144,47.978-0.029,95.957-0.199,143.935
	c-0.016,4.306,0.888,5.442,5.349,5.425c48.646-0.189,97.29-0.043,145.933-0.242C437.834,218.934,438.656,220.243,438.593,224.454z"
	/>
</svg>
