<?xml version="1.0" encoding="utf-8"?>
<!-- Generator: Adobe Illustrator 16.0.0, SVG Export Plug-In . SVG Version: 6.00 Build 0)  -->
<!DOCTYPE svg PUBLIC "-//W3C//DTD SVG 1.1//EN" "http://www.w3.org/Graphics/SVG/1.1/DTD/svg11.dtd">
<svg version="1.1" id="Layer_1" xmlns="http://www.w3.org/2000/svg" xmlns:xlink="http://www.w3.org/1999/xlink" x="0px" y="0px"
	 width="500px" height="500px" viewBox="0 0 500 500" enable-background="new 0 0 500 500" xml:space="preserve">
<path fill="#A61E22" d="M487.467,60.531c0.21-20.85-15.469-42.965-43.263-42.934c-127.632,0.146-255.264,0.066-382.896,0.06
	c-4.181,0-8.311,0.425-12.353,1.491c-19.072,5.028-30.818,20.992-30.82,41.999c-0.014,127.465-0.007,254.93-0.005,382.396
	c0,1.166-0.006,2.333,0.044,3.497c0.982,22.897,18.615,39.919,41.491,39.923c128.632,0.02,257.263,0.018,385.896,0.002
	c24.078-0.003,41.67-17.578,41.672-41.54c0.004-64.315,0.002-128.633,0.002-192.946C487.234,188.494,486.825,124.508,487.467,60.531
	z M421.564,427.004c-112.629-0.115-225.254-0.12-337.881,0.014c-4.556,0.006-5.673-1.152-5.667-5.693
	C78.151,308.697,78.158,196.071,78,83.443c-0.007-4.894,1.242-5.923,5.997-5.907c56.312,0.183,112.626,0.118,168.938,0.118
	c56.313,0,112.629,0.056,168.94-0.109c4.405-0.013,5.477,1.046,5.471,5.461c-0.135,112.793-0.14,225.586,0.012,338.38
	C427.365,426.119,425.952,427.009,421.564,427.004z"/>
</svg>
