<?xml version="1.0" encoding="utf-8"?>
<!-- Generator: Adobe Illustrator 16.0.0, SVG Export Plug-In . SVG Version: 6.00 Build 0)  -->
<!DOCTYPE svg PUBLIC "-//W3C//DTD SVG 1.1//EN" "http://www.w3.org/Graphics/SVG/1.1/DTD/svg11.dtd">
<svg version="1.1" id="Layer_1" xmlns="http://www.w3.org/2000/svg" xmlns:xlink="http://www.w3.org/1999/xlink" x="0px" y="0px"
	 width="500px" height="500px" viewBox="0 0 500 500" enable-background="new 0 0 500 500" xml:space="preserve">
<path fill-rule="evenodd" clip-rule="evenodd" fill="#A51E23" d="M477.099,152.39c0.014-5.052-1.55-5.87-6.157-5.852
	c-46.65,0.173-93.301,0.073-139.951,0.172c-3.437,0.008-5.659-0.821-7.896-3.708c-13.748-17.723-30.592-31.884-50.314-42.612
	c-24.093-13.105-50.003-19.73-77.232-21.325c-4.531-0.266-5.448-1.845-5.154-5.903c0.353-4.876,0.083-9.797,0.083-15.676
	c-15.9,14.23-30.982,27.727-46.285,41.422c15.318,13.699,30.381,27.169,46.285,41.391c0-8.731,0.141-16.32-0.071-23.898
	c-0.083-2.954,0.749-3.891,3.762-4.25c30.761-3.677,60.799-1.143,89.709,10.488c13.463,5.416,25.684,12.975,37.043,24.005
	c-3.104,0-4.932,0-6.758,0c-93.969,0-187.936,0.036-281.903-0.109c-4.63-0.007-5.711,1.234-5.702,5.759
	c0.147,69.31,0.166,138.62-0.027,207.928c-0.014,5.063,1.542,5.889,6.143,5.868c39.819-0.181,79.639-0.062,119.458-0.178
	c3.502-0.01,5.756,0.982,7.929,3.811c14.097,18.347,31.503,32.837,51.908,43.741c23.88,12.761,49.523,19.126,76.396,20.753
	c4.096,0.248,5.383,1.342,5.033,5.452c-0.415,4.892-0.098,9.846-0.098,14.844c0.802-0.135,1.199-0.079,1.393-0.252
	c14.033-12.525,28.009-25.115,42.11-37.562c2.384-2.104,1.726-3.221-0.263-4.98c-11.222-9.926-22.345-19.962-33.516-29.946
	c-3.016-2.695-6.076-5.339-9.725-8.54c0,8.28-0.196,15.6,0.088,22.899c0.131,3.372-0.955,4.74-4.238,5.082
	c-32.468,3.383-64.138,0.865-94.276-12.761c-11.845-5.354-22.58-12.413-32.083-21.731c2.244-1.259,4.252-0.706,6.152-0.706
	c100.798-0.034,201.597-0.063,302.397,0.076c4.616,0.006,5.745-1.225,5.736-5.773C476.927,291.009,476.911,221.699,477.099,152.39z
	 M252.044,340.457c-49.313,0.121-87.727-37.397-87.689-85.646c0.037-47.172,38.17-85.307,85.454-85.455
	c46.504-0.146,85.521,37.996,85.649,83.726C335.593,301.265,298.286,340.344,252.044,340.457z"/>
<path fill-rule="evenodd" clip-rule="evenodd" fill="#A51E23" d="M243.985,289.795c4.998,0,9.998,0.103,14.994-0.024
	c7.148-0.182,11.786-5.243,11.819-12.686c0.032-7.42-4.599-12.674-11.638-12.918c-6.982-0.241-14.052,0.362-20.944-0.505
	c-14.405-1.812-24.595-14.137-24.61-28.794c-0.015-14.751,10.643-27.407,25.019-29.038c3.388-0.385,4.11-1.433,3.89-4.418
	c-0.207-2.816-0.181-5.67,0.007-8.49c0.292-4.375,3.56-7.362,7.849-7.438c4.302-0.076,7.752,2.757,8.185,7.101
	c0.297,2.971,0.362,6.011,0.09,8.98c-0.314,3.435,1.081,4.346,4.26,4.085c2.979-0.244,5.993-0.078,8.992-0.047
	c6.016,0.064,9.332,2.858,9.44,7.913c0.106,5.012-3.092,8.374-8.996,8.531c-9.656,0.256-19.326,0.246-28.983,0.023
	c-5.209-0.12-9.163,1.594-11.556,6.207c-2.388,4.602-2.298,9.311,0.399,13.801c2.219,3.694,5.451,5.499,9.904,5.57
	c7.474,0.118,14.988-0.803,22.42,0.673c13.425,2.666,22.867,14.592,22.813,28.811c-0.052,14.028-9.351,26.123-22.625,28.338
	c-4.96,0.827-6.83,2.537-6.066,7.451c0.327,2.107,0.145,4.334-0.08,6.479c-0.456,4.359-3.766,7.213-8.08,7.184
	c-4.317-0.03-7.627-2.965-7.956-7.343c-0.211-2.816-0.277-5.683-0.006-8.487c0.325-3.362-0.558-4.853-4.258-4.488
	c-3.465,0.341-6.993,0.163-10.487,0.049c-5.228-0.171-8.367-3.121-8.539-7.831c-0.183-5.012,2.871-8.405,8.252-8.623
	c5.488-0.223,10.993-0.05,16.49-0.05C243.985,289.806,243.985,289.8,243.985,289.795z"/>
</svg>
