<?xml version="1.0" encoding="utf-8"?>
<!-- Generator: Adobe Illustrator 16.0.0, SVG Export Plug-In . SVG Version: 6.00 Build 0)  -->
<!DOCTYPE svg PUBLIC "-//W3C//DTD SVG 1.1//EN" "http://www.w3.org/Graphics/SVG/1.1/DTD/svg11.dtd">
<svg version="1.1" id="Layer_1" xmlns="http://www.w3.org/2000/svg" xmlns:xlink="http://www.w3.org/1999/xlink" x="0px" y="0px"
	 width="500px" height="500px" viewBox="0 0 500 500" enable-background="new 0 0 500 500" xml:space="preserve">
<path fill="#FFFFFF" d="M251.477,464.605c-73.143,0-146.286-0.046-219.429,0.106c-4.547,0.009-5.788-1.109-5.645-5.671
	c1.458-46.273,16.387-87.748,45.088-123.917c38.566-48.603,89.239-77.175,150.615-84.169c81.442-9.281,150.822,16.303,204.86,78.797
	c31.982,36.984,48.119,80.729,49.562,129.773c0.121,4.146-0.932,5.188-5.122,5.181C398.096,464.565,324.786,464.605,251.477,464.605
	z"/>
<path fill="#FFFFFF" d="M345.62,136.154c-0.114,52.582-42.804,95.172-95.376,95.153c-52.916-0.018-95.429-42.966-95.296-96.271
	c0.132-52.9,43.23-94.736,97.393-94.541C303.549,40.68,345.734,83.941,345.62,136.154z"/>
</svg>
