<?xml version="1.0" encoding="utf-8"?>
<!-- Generator: Adobe Illustrator 16.0.0, SVG Export Plug-In . SVG Version: 6.00 Build 0)  -->
<!DOCTYPE svg PUBLIC "-//W3C//DTD SVG 1.1//EN" "http://www.w3.org/Graphics/SVG/1.1/DTD/svg11.dtd">
<svg version="1.1" id="Layer_1" xmlns="http://www.w3.org/2000/svg" xmlns:xlink="http://www.w3.org/1999/xlink" x="0px" y="0px"
	 width="300px" height="300px" viewBox="0 0 300 300" enable-background="new 0 0 300 300" xml:space="preserve">
<g>
	<polygon fill="#A71F23" points="127.74,130.443 136.368,130.443 144.024,145.278 151.252,130.443 159.233,130.443 157.293,131.952 
		159.233,155.681 161.606,157.406 152.547,157.406 154.272,155.681 153.194,138.423 143.392,157.024 133.349,137.129 
		131.192,155.681 133.78,157.622 123.857,157.406 126.661,154.602 129.682,133.462 	"/>
	<path fill="#A71F23" d="M192.021,157.622l-3.246-2.373l-9.048-24.806h-9.061l2.373,3.019l-8.412,21.356l-3.021,2.588l8.845,0.216
		l-0.647-2.156l3.021-7.766h8.28l2.505,7.551l-2.266,2.372L192.021,157.622L192.021,157.622L192.021,157.622z M172.823,144.032
		l2.805-7.55l3.02,7.55H172.823z"/>
	<path fill="#A71F23" d="M294.484,157.622l-3.247-2.373l-9.048-24.806h-9.061l2.374,3.019l-8.414,21.356l-3.021,2.588l8.845,0.216
		l-0.647-2.156l3.021-7.766h8.281l2.504,7.551l-2.266,2.372L294.484,157.622L294.484,157.622z M275.286,144.032l2.805-7.55
		l3.021,7.55H275.286z"/>
	<polygon fill="#A71F23" points="183.609,130.443 192.021,130.443 199.537,141.012 205.117,132.383 202.161,130.443 
		210.789,130.443 201.513,145.111 201.513,155.249 205.117,157.622 193.101,157.622 195.904,154.818 195.904,145.327 
		188.092,133.462 	"/>
	<path fill="#A71F23" d="M224.383,129.58c-8.461,0-15.32,6.374-15.32,14.236c0,7.864,6.858,14.238,15.32,14.238
		c8.46,0,15.318-6.374,15.318-14.238C239.701,135.953,232.843,129.58,224.383,129.58z M224.771,154.258
		c-5.524,0-10.002-4.816-10.002-10.761c0-5.943,4.478-10.759,10.002-10.759c5.523,0,10.002,4.816,10.002,10.759
		C234.772,149.439,230.294,154.258,224.771,154.258z"/>
	<path fill="#A71F23" d="M257.667,157.406h6.403l-2.159-1.726l-8.415-11.649c4.315-1.727,5.395-4.746,5.395-4.746
		c1.943-7.334-5.828-8.843-5.828-8.843H239.69l3.293,3.019v22.002l-3.293,2.156h11.405l-3.427-2.156v-11.432L257.667,157.406z
		 M246.588,140.796v-6.472c8.202-0.215,7.554,3.236,7.554,3.236C251.449,142.896,246.588,140.796,246.588,140.796z"/>
	<path fill-rule="evenodd" clip-rule="evenodd" fill="#A71F23" d="M25.23,117.911c4.329,1.21,3.869,3.905,2.157,7.235
		c-5.922-0.37-12.673-2.293-15.83,5.067c-2.629,6.13-2.776,12.619,1.386,18.186c3.816,5.104,9.406,3.904,14.675,2.73
		c2.739,5.134,2.419,5.851-3.034,6.953c-12.54,2.531-21.302-4.128-22.24-16.9c-0.885-12.059,2.634-17.917,13.979-23.271
		C19.292,117.911,22.261,117.911,25.23,117.911z"/>
	<path fill-rule="evenodd" clip-rule="evenodd" fill="#A71F23" d="M105.222,142.536c3.047,4.949,5.955,9.671,9.064,14.722
		c-4.956,1.329-8.417,0.952-10.473-3.934c-1.116-2.65-3.037-4.965-4.594-7.43c-0.509,0.181-1.019,0.363-1.528,0.544
		c-0.201,3.567-0.401,7.134-0.622,11.063c-2.11,0-4.065,0-6.325,0c0-12.828,0-25.473,0-38.393c2.17,0,4.025,0,6.541,0
		c0,7.465,0,14.761,0,22.056c0.518,0.197,1.034,0.393,1.552,0.59c1.463-2.327,3.278-4.509,4.311-7.013
		c1.857-4.504,4.963-5.292,9.819-3.865C110.242,134.978,107.671,138.849,105.222,142.536z"/>
	<path fill-rule="evenodd" clip-rule="evenodd" fill="#A71F23" d="M82.783,134.946c-3.053,0.897-7.814,0.951-8.769,2.885
		c-1.561,3.159-1.687,7.901-0.516,11.327c1.645,4.813,6.518,3.284,10.271,2.514c2.198,4.654,1.919,5.301-2.435,6.358
		c-9.431,2.288-15.601-2.024-16.09-11.629c-0.169-3.329,0.083-6.904,1.145-10.025c2.143-6.298,11.059-9.424,16.736-5.932
		c1.139,0.701,1.057,3.386,1.537,5.156C84.035,135.382,83.409,135.164,82.783,134.946z"/>
	<path fill-rule="evenodd" clip-rule="evenodd" fill="#A71F23" d="M47.134,152.539c0,2.011,0,3.312,0,5.605
		c-2.764,0-5.654,0.579-8.109-0.204c-1.642-0.523-3.746-2.952-3.793-4.583c-0.331-11.224-0.174-22.463-0.174-34.097
		c2.303,0,4.248,0,6.842,0c0,7.208-0.002,14.276,0.001,21.345c0.001,2.222,0.139,4.451-0.007,6.662
		C41.66,150.773,42.541,153.174,47.134,152.539z"/>
	<g>
		<path fill-rule="evenodd" clip-rule="evenodd" fill="#A71F23" d="M53.195,164.966c0.026-8.852,0.052-17.704,0.078-26.557
			c1.204-1.999,2.75-3.294,5.25-2.387c2.403,0.874,2.36,2.907,2.339,4.979c-0.047,5.016,0.11,10.038-0.083,15.049
			c-0.099,2.581,0.578,4.268,3.209,4.862c0.216,0.449,0.148,0.851-0.204,1.205c-3.5-0.334-4.771-2.044-4.498-5.713
			c0.383-5.154,0.083-10.358,0.09-15.542c0.001-1.789,0.264-3.728-2.464-3.661c-2.496,0.062-2.221,1.84-2.154,3.489
			c0.042,1.01,0.076,2.02,0.113,3.03c0.597,6.294-0.194,12.621,0.43,18.916c0.115,1.161-0.438,1.929-1.589,2.229l-0.275-0.037
			L53.195,164.966z"/>
		<path fill-rule="evenodd" clip-rule="evenodd" fill="#A71F23" d="M63.785,162.118c0.067-0.402,0.135-0.804,0.204-1.205
			c3.795,1.636,7.355,3.844,11.412,4.838c4.121,1.011,2.591,3.94,2.951,6.637c-1.927-0.415-1.664-1.484-1.606-2.258
			c0.156-2.128-0.672-3.056-2.841-2.816c-0.936,0.103-1.979,0.498-2.615-0.795c-0.895-1.821-2.58-2.407-4.454-2.177
			C65.004,164.565,64.447,163.338,63.785,162.118z"/>
		<path fill-rule="evenodd" clip-rule="evenodd" fill="#A71F23" d="M52.78,165c-1.398,0.079-2.309-0.856-3.322-1.587
			c-1.242-0.897-2.662-1.344-3.644,0.093c-0.896,1.31-0.235,2.574,0.898,3.652c1.774,1.686,4.217,2.654,5.745,5.279
			c-2.565-0.061-3.57-2.232-5.375-2.807c-0.061-0.109-0.096-0.25-0.186-0.321c-1.905-1.511-3.735-3.085-2.892-5.902
			c0.437-1.459,1.651-2.388,3.058-2.36C49.728,161.101,51.71,162.471,52.78,165z"/>
		<path fill-rule="evenodd" clip-rule="evenodd" fill="#A71F23" d="M58.507,125.461c-1.266,0-2.533,0-3.799,0
			c-3.235,4.549-3.136,5.542,0.814,8.203c2.412,0.07,4.903,0.022,5.927-2.662C62.506,128.228,60.502,126.777,58.507,125.461z
			 M57.738,132.286c-2.343-0.167-3.847-0.624-3.741-2.603c0.109-2.035,1.601-2.679,3.449-2.648c1.829,0.03,2.943,1.063,2.811,2.796
			C60.123,131.571,58.853,132.415,57.738,132.286z"/>
	</g>
	<g>
		<path fill="#A71F23" d="M184.979,163.533l-2.071,10.908h-2.331l2.071-10.908H184.979z"/>
		<path fill="#A71F23" d="M184.963,174.441l1.003-5.341c0.194-1.003,0.324-1.86,0.421-2.573h2.056l-0.145,1.312h0.031
			c0.744-1.021,1.732-1.489,2.768-1.489c1.295,0,2.04,0.794,2.04,2.169c0,0.355-0.065,0.939-0.13,1.327l-0.874,4.596h-2.33
			l0.825-4.385c0.048-0.275,0.081-0.583,0.081-0.874c0-0.567-0.194-0.956-0.794-0.956c-0.761,0-1.635,0.956-1.975,2.703
			l-0.646,3.512H184.963z"/>
		<path fill="#A71F23" d="M198.541,164.391l-0.404,2.137h1.7l-0.357,1.78h-1.684l-0.534,2.671c-0.064,0.323-0.128,0.729-0.128,1.004
			c0,0.389,0.16,0.663,0.679,0.663c0.194,0,0.438,0,0.632-0.032l-0.26,1.828c-0.308,0.113-0.891,0.179-1.375,0.179
			c-1.408,0-2.072-0.712-2.072-1.716c0-0.42,0.048-0.857,0.179-1.456l0.599-3.141h-1.004l0.323-1.78h1.021l0.291-1.488
			L198.541,164.391z"/>
		<path fill="#A71F23" d="M206.245,173.989c-0.923,0.469-2.071,0.631-2.947,0.631c-2.265,0-3.431-1.279-3.431-3.35
			c0-2.412,1.748-4.921,4.613-4.921c1.603,0,2.751,0.907,2.751,2.379c0,2.007-1.958,2.735-5.131,2.655
			c0,0.226,0.082,0.582,0.244,0.809c0.307,0.405,0.841,0.615,1.521,0.615c0.857,0,1.587-0.194,2.218-0.502L206.245,173.989z
			 M205.048,168.712c0-0.389-0.325-0.663-0.859-0.663c-1.084,0-1.699,0.907-1.86,1.635c1.813,0.016,2.72-0.226,2.72-0.955V168.712z"
			/>
		<path fill="#A71F23" d="M207.716,174.441l0.906-4.71c0.211-1.197,0.324-2.524,0.405-3.204h2.007
			c-0.032,0.534-0.08,1.068-0.146,1.635h0.065c0.55-1.068,1.424-1.813,2.509-1.813c0.161,0,0.308,0.017,0.437,0.017l-0.453,2.281
			c-0.098-0.016-0.227-0.016-0.356-0.016c-1.473,0-2.185,1.311-2.477,2.865l-0.55,2.944H207.716z"/>
		<path fill="#A71F23" d="M213.72,174.441l1.004-5.341c0.193-1.003,0.324-1.86,0.421-2.573h2.056l-0.146,1.312h0.032
			c0.744-1.021,1.732-1.489,2.768-1.489c1.295,0,2.04,0.794,2.04,2.169c0,0.355-0.065,0.939-0.13,1.327l-0.874,4.596h-2.331
			l0.826-4.385c0.049-0.275,0.08-0.583,0.08-0.874c0-0.567-0.193-0.956-0.793-0.956c-0.761,0-1.635,0.956-1.975,2.703l-0.647,3.512
			H213.72z"/>
		<path fill="#A71F23" d="M229.451,173.989c-0.922,0.469-2.071,0.631-2.945,0.631c-2.267,0-3.432-1.279-3.432-3.35
			c0-2.412,1.748-4.921,4.612-4.921c1.603,0,2.752,0.907,2.752,2.379c0,2.007-1.958,2.735-5.131,2.655
			c0,0.226,0.082,0.582,0.243,0.809c0.307,0.405,0.842,0.615,1.521,0.615c0.859,0,1.587-0.194,2.218-0.502L229.451,173.989z
			 M228.254,168.712c0-0.389-0.323-0.663-0.858-0.663c-1.084,0-1.699,0.907-1.861,1.635c1.813,0.016,2.72-0.226,2.72-0.955V168.712z
			"/>
		<path fill="#A71F23" d="M235.406,164.391l-0.404,2.137h1.699l-0.355,1.78h-1.684l-0.534,2.671c-0.064,0.323-0.13,0.729-0.13,1.004
			c0,0.389,0.162,0.663,0.681,0.663c0.193,0,0.437,0,0.631-0.032l-0.259,1.828c-0.308,0.113-0.891,0.179-1.376,0.179
			c-1.409,0-2.072-0.712-2.072-1.716c0-0.42,0.049-0.857,0.178-1.456l0.6-3.141h-1.004l0.324-1.78h1.02l0.292-1.488L235.406,164.391
			z"/>
		<path fill="#A71F23" d="M241.669,163.728c0.777-0.162,1.796-0.26,2.865-0.26c1.148,0,1.974,0.146,2.702,0.567
			c0.729,0.372,1.263,1.084,1.263,2.007c0,1.375-1.003,2.233-2.201,2.573v0.049c1.053,0.323,1.716,1.182,1.716,2.379
			c0,1.182-0.631,2.023-1.489,2.59c-0.922,0.632-2.298,0.891-4.111,0.891c-1.229,0-2.217-0.082-2.752-0.195L241.669,163.728z
			 M242.252,172.662c0.274,0.032,0.55,0.032,0.89,0.032c1.262,0,2.412-0.502,2.412-1.716c0-1.084-0.906-1.407-1.991-1.407h-0.728
			L242.252,172.662z M243.19,167.871h0.776c1.279,0,2.153-0.534,2.153-1.474c0-0.776-0.631-1.116-1.521-1.116
			c-0.405,0-0.745,0.032-0.923,0.064L243.19,167.871z"/>
		<path fill="#A71F23" d="M254.243,174.441c0.017-0.452,0.065-1.003,0.097-1.568h-0.031c-0.744,1.311-1.765,1.747-2.688,1.747
			c-1.425,0-2.396-1.101-2.396-2.751c0-2.672,1.78-5.52,5.665-5.52c0.955,0,1.959,0.178,2.606,0.389l-0.793,4.144
			c-0.194,1.02-0.356,2.573-0.324,3.56H254.243z M254.875,168.179c-0.178-0.032-0.373-0.065-0.615-0.065
			c-1.505,0-2.605,1.846-2.605,3.318c0,0.777,0.307,1.311,0.955,1.311c0.695,0,1.586-0.793,1.941-2.734L254.875,168.179z"/>
		<path fill="#A71F23" d="M257.981,174.441l1.003-5.341c0.194-1.003,0.323-1.86,0.421-2.573h2.056l-0.146,1.312h0.031
			c0.746-1.021,1.733-1.489,2.769-1.489c1.296,0,2.039,0.794,2.039,2.169c0,0.355-0.064,0.939-0.128,1.327l-0.876,4.596h-2.329
			l0.825-4.385c0.049-0.275,0.08-0.583,0.08-0.874c0-0.567-0.193-0.956-0.793-0.956c-0.76,0-1.635,0.956-1.975,2.703l-0.647,3.512
			H257.981z"/>
		<path fill="#A71F23" d="M267.092,174.441l2.186-11.491h2.314l-1.312,6.879h0.033c0.242-0.308,0.485-0.615,0.712-0.89l2.022-2.412
			h2.882l-3.367,3.27l2.201,4.645h-2.605l-1.392-3.381l-0.874,0.841l-0.485,2.54H267.092z"/>
		<path fill="#A71F23" d="M275.734,174.441l1.505-7.914h2.314l-1.489,7.914H275.734z M278.68,165.491
			c-0.68,0-1.182-0.485-1.182-1.214c0-0.841,0.664-1.408,1.425-1.408c0.729,0,1.246,0.47,1.246,1.214
			c0,0.891-0.68,1.408-1.474,1.408H278.68z"/>
		<path fill="#A71F23" d="M280.023,174.441l1.003-5.341c0.194-1.003,0.323-1.86,0.421-2.573h2.055l-0.146,1.312h0.032
			c0.745-1.021,1.731-1.489,2.769-1.489c1.295,0,2.039,0.794,2.039,2.169c0,0.355-0.065,0.939-0.129,1.327l-0.875,4.596h-2.33
			l0.825-4.385c0.049-0.275,0.081-0.583,0.081-0.874c0-0.567-0.194-0.956-0.793-0.956c-0.761,0-1.635,0.956-1.976,2.703
			l-0.646,3.512H280.023z"/>
		<path fill="#A71F23" d="M289.651,175.543c0.438,0.259,1.393,0.438,2.071,0.438c1.166,0,2.023-0.519,2.364-2.104l0.129-0.68h-0.032
			c-0.614,0.809-1.327,1.182-2.267,1.182c-1.569,0-2.524-1.278-2.54-2.833c-0.017-2.605,1.861-5.195,5.309-5.195
			c1.117,0,2.088,0.21,2.93,0.55l-1.198,6.523c-0.275,1.457-0.728,2.751-1.667,3.512c-0.857,0.681-2.007,0.891-3.059,0.891
			c-1.068,0-2.04-0.194-2.591-0.502L289.651,175.543z M295.09,168.275c-0.178-0.08-0.518-0.146-0.842-0.146
			c-1.408,0-2.412,1.569-2.412,3.059c0,0.811,0.357,1.393,1.068,1.393c0.762,0,1.521-0.858,1.781-2.185L295.09,168.275z"/>
	</g>
</g>
</svg>
