<?xml version="1.0" encoding="utf-8"?>
<!-- Generator: Adobe Illustrator 16.0.0, SVG Export Plug-In . SVG Version: 6.00 Build 0)  -->
<!DOCTYPE svg PUBLIC "-//W3C//DTD SVG 1.1//EN" "http://www.w3.org/Graphics/SVG/1.1/DTD/svg11.dtd">
<svg version="1.1" id="Layer_1" xmlns="http://www.w3.org/2000/svg" xmlns:xlink="http://www.w3.org/1999/xlink" x="0px" y="0px"
	 width="500px" height="500px" viewBox="0 0 500 500" enable-background="new 0 0 500 500" xml:space="preserve">
<path fill="#A61E22" d="M479.6,207.1C405.843,147.875,332.055,88.688,258.412,29.32c-3.748-3.021-5.768-2.889-9.388,0.028
	C188.61,78.06,128.068,126.611,67.557,175.201c-14.001,11.243-27.991,22.497-41.986,33.746c0.143,0.354,0.286,0.706,0.43,1.058
	c14.454,0,28.912,0.22,43.357-0.121c4.904-0.116,6.282,0.977,6.27,6.146c-0.192,84.311-0.112,168.622-0.213,252.935
	c-0.005,3.975,0.361,5.741,5.186,5.622c15.819-0.391,31.659-0.362,47.481-0.014c4.643,0.102,5.34-1.374,5.331-5.563
	c-0.132-65.482-0.062-130.966-0.172-196.449c-0.006-3.793,0.793-5.06,4.868-5.03c27.658,0.192,55.319,0.202,82.977-0.005
	c4.296-0.031,5.516,0.863,5.504,5.387c-0.172,65.482-0.077,130.966-0.216,196.448c-0.009,4.089,0.871,5.197,5.1,5.188
	c64.981-0.151,129.965-0.163,194.946,0.011c4.766,0.014,5.995-1.044,5.985-5.921c-0.17-84.477-0.095-168.956-0.212-253.434
	c-0.006-4.023,0.789-5.401,5.102-5.307c13.656,0.298,27.323,0.135,40.987,0.065c1.127-0.006,2.618,0.818,3.597-0.972
	C481.106,208.349,480.362,207.713,479.6,207.1z M367.879,328.032c-25.326-0.214-50.655-0.166-75.98-0.033
	c-3.342,0.019-4.545-0.644-4.521-4.296c0.166-25.492,0.166-50.988,0-76.481c-0.023-3.656,1.188-4.309,4.523-4.292
	c25.326,0.133,50.655,0.18,75.981-0.034c4.157-0.035,4.873,1.371,4.813,5.079c-0.204,12.661-0.078,25.327-0.078,37.99
	c0,12.331-0.13,24.664,0.078,36.991C372.758,326.669,372.031,328.066,367.879,328.032z"/>
</svg>
