<?xml version="1.0" encoding="utf-8"?>
<!-- Generator: Adobe Illustrator 16.0.0, SVG Export Plug-In . SVG Version: 6.00 Build 0)  -->
<!DOCTYPE svg PUBLIC "-//W3C//DTD SVG 1.1//EN" "http://www.w3.org/Graphics/SVG/1.1/DTD/svg11.dtd">
<svg version="1.1" id="Layer_1" xmlns="http://www.w3.org/2000/svg" xmlns:xlink="http://www.w3.org/1999/xlink" x="0px" y="0px"
	 width="500px" height="500px" viewBox="0 0 500 500" enable-background="new 0 0 500 500" xml:space="preserve">
<path fill-rule="evenodd" clip-rule="evenodd" fill="#A61E22" d="M260.632,71.451c-0.013,26.566-20.926,47.541-47.425,47.566
	c-26.335,0.024-47.663-21.207-47.728-47.512c-0.064-26.507,21.341-47.875,47.929-47.844
	C239.743,23.691,260.644,44.843,260.632,71.451z"/>
<path fill-rule="evenodd" clip-rule="evenodd" fill="#A61E22" d="M146.481,151.429c-0.02,23.979-19.376,43.401-43.405,43.553
	c-23.976,0.151-43.665-19.671-43.583-43.881c0.081-24.01,19.488-43.189,43.661-43.147
	C127.235,107.995,146.501,127.327,146.481,151.429z"/>
<path fill-rule="evenodd" clip-rule="evenodd" fill="#A61E22" d="M70.019,232.064c22.573,0.021,40.892,18.293,40.997,40.89
	c0.105,22.691-18.525,41.203-41.303,41.039c-22.62-0.163-40.816-18.513-40.746-41.089C29.038,250.373,47.463,232.043,70.019,232.064
	z"/>
<path fill-rule="evenodd" clip-rule="evenodd" fill="#A61E22" d="M154.644,382.612c0,22.249-17.31,39.781-39.329,39.835
	c-22.24,0.054-40.127-17.781-39.974-39.857c0.153-22.048,17.791-39.654,39.734-39.662
	C137.096,342.92,154.645,360.521,154.644,382.612z"/>
<path fill-rule="evenodd" clip-rule="evenodd" fill="#A61E22" d="M216.259,405.286c19.464,0.02,35.035,15.463,35.043,34.756
	c0.008,19.137-15.753,34.852-35.031,34.928c-19.273,0.076-34.8-15.513-34.794-34.932
	C181.483,420.412,196.643,405.266,216.259,405.286z"/>
<path fill-rule="evenodd" clip-rule="evenodd" fill="#A61E22" d="M354.619,440.077c0.012,19.443-15.451,34.943-34.812,34.893
	c-19.346-0.051-34.839-15.586-34.874-34.968c-0.035-19.36,15.427-34.716,34.956-34.717
	C339.466,405.285,354.608,420.453,354.619,440.077z"/>
<path fill-rule="evenodd" clip-rule="evenodd" fill="#A61E22" d="M392.247,355.292c16.978-0.039,30.513,13.25,30.725,30.163
	c0.211,16.926-13.636,30.953-30.591,30.987c-16.708,0.033-30.573-13.647-30.762-30.351
	C361.429,369.095,375.115,355.331,392.247,355.292z"/>
<path fill-rule="evenodd" clip-rule="evenodd" fill="#A61E22" d="M466.605,323.376c-0.064,15.418-12.098,27.162-27.749,27.08
	c-15.214-0.08-27.453-12.577-27.243-27.82c0.208-15.201,12.694-27.323,27.989-27.173C454.969,295.614,466.67,307.71,466.605,323.376
	z"/>
<path fill-rule="evenodd" clip-rule="evenodd" fill="#A61E22" d="M452.14,273.629c-13.642,0.021-24.584-10.676-24.684-24.129
	c-0.102-13.591,11.191-24.949,24.714-24.858c13.443,0.091,24.264,11.078,24.271,24.646
	C476.447,263.042,465.898,273.608,452.14,273.629z"/>
<path fill-rule="evenodd" clip-rule="evenodd" fill="#A61E22" d="M437.15,161.479c12.965-0.043,23.152,10.112,23.128,23.055
	c-0.023,12.753-10.038,22.856-22.738,22.939c-13.215,0.086-23.204-9.702-23.256-22.79
	C414.233,171.548,424.112,161.522,437.15,161.479z"/>
<path fill-rule="evenodd" clip-rule="evenodd" fill="#A61E22" d="M387.346,135.239c-0.043-10.657,8.261-18.952,18.921-18.902
	c10.342,0.048,18.54,8.243,18.704,18.697c0.162,10.37-8.553,19.08-18.979,18.964C395.64,153.884,387.388,145.583,387.346,135.239z"
	/>
<path fill-rule="evenodd" clip-rule="evenodd" fill="#A61E22" d="M349.293,97.379c0.109-10.418,8.36-18.503,18.798-18.418
	c10.641,0.087,18.636,8.377,18.523,19.208c-0.11,10.666-8.386,18.517-19.307,18.316C356.955,116.295,349.182,108.05,349.293,97.379z
	"/>
</svg>
