<?xml version="1.0" encoding="utf-8"?>
<!-- Generator: Adobe Illustrator 16.0.0, SVG Export Plug-In . SVG Version: 6.00 Build 0)  -->
<!DOCTYPE svg PUBLIC "-//W3C//DTD SVG 1.1//EN" "http://www.w3.org/Graphics/SVG/1.1/DTD/svg11.dtd">
<svg version="1.1" id="Layer_1" xmlns="http://www.w3.org/2000/svg" xmlns:xlink="http://www.w3.org/1999/xlink" x="0px" y="0px"
	 width="500px" height="500px" viewBox="0 0 500 500" enable-background="new 0 0 500 500" xml:space="preserve">
<path fill-rule="evenodd" clip-rule="evenodd" fill="#A61E22" d="M27.964,251.267c0-73.152,0.054-146.304-0.12-219.456
	c-0.011-4.919,1.329-5.96,6.077-5.956c139.972,0.135,279.944,0.14,419.917-0.014c5.089-0.006,6.376,1.243,6.267,6.292
	c-0.35,16.156-0.301,32.327-0.018,48.485c0.077,4.428-1.099,5.512-5.514,5.507c-119.643-0.129-239.286-0.104-358.929-0.103
	c-7.623,0-7.623,0-7.623,7.68c0,105.146,0,210.292,0,315.438c0,7.774,0,7.775,8.028,7.775c119.31,0,238.619,0.028,357.929-0.107
	c4.689-0.005,6.23,0.926,6.126,5.916c-0.344,16.49-0.229,32.992-0.051,49.486c0.039,3.591-0.708,4.854-4.621,4.851
	c-140.972-0.105-281.944-0.113-422.915,0.023c-4.561,0.005-4.599-2.006-4.596-5.362C27.977,398.237,27.964,324.751,27.964,251.267z"
	/>
<path fill-rule="evenodd" clip-rule="evenodd" fill="#A61E22" d="M419.915,330.114c0-9.969-0.266-19.736,0.112-29.479
	c0.188-4.829-0.849-6.324-6.1-6.313c-91.646,0.196-183.292,0.104-274.938,0.255c-4.615,0.007-5.663-1.222-5.615-5.69
	c0.239-22.159,0.109-44.323,0.109-66.484c0-6.461,0-6.461,6.716-6.461c90.48,0,180.959,0,271.439,0c8.276,0,8.276-0.001,8.276-8.528
	c0-9.959,0-19.917,0-29.989c2.11-0.015,2.619,1.646,3.464,2.667c19.222,23.221,38.346,46.521,57.628,69.69
	c2.466,2.964,2.47,4.754-0.098,7.822c-19.237,22.988-38.227,46.184-57.312,69.299C422.685,328.008,422.078,329.472,419.915,330.114z
	"/>
</svg>
