<?xml version="1.0" encoding="utf-8"?>
<!-- Generator: Adobe Illustrator 16.0.0, SVG Export Plug-In . SVG Version: 6.00 Build 0)  -->
<!DOCTYPE svg PUBLIC "-//W3C//DTD SVG 1.1//EN" "http://www.w3.org/Graphics/SVG/1.1/DTD/svg11.dtd">
<svg version="1.1" id="Layer_1" xmlns="http://www.w3.org/2000/svg" xmlns:xlink="http://www.w3.org/1999/xlink" x="0px" y="0px"
	 width="500px" height="500px" viewBox="0 0 500 500" enable-background="new 0 0 500 500" xml:space="preserve">
<g>
	<polygon fill-rule="evenodd" clip-rule="evenodd" fill="#FFFFFF" points="156.319,199.837 164.246,152.284 171.18,152.284 
		182.474,176.06 203.081,152.284 208.628,152.284 200.703,199.837 191.192,199.837 197.533,169.719 182.474,189.533 
		169.794,167.341 165.038,199.837 	"/>
	<path fill-rule="evenodd" clip-rule="evenodd" fill="#FFFFFF" d="M233.381,161.957c-7.55-2.604-16.815,4.408-20.689,15.661
		c-3.879,11.246-0.897,22.477,6.656,25.079c7.553,2.604,16.818-4.41,20.692-15.656C243.918,175.79,240.938,164.559,233.381,161.957z
		 M233.001,185.432c-2.617,6.612-7.761,10.778-11.487,9.301c-3.723-1.479-4.624-8.034-2.001-14.647
		c2.619-6.612,7.764-10.779,11.487-9.303C234.727,172.259,235.622,178.816,233.001,185.432z"/>
	<path fill-rule="evenodd" clip-rule="evenodd" fill="#FFFFFF" d="M258.956,168.521l3.963-16.237h-9.163l-9.464,47.553
		c0,0,16.25,9.498,29.328-10.711C273.619,189.126,283.907,162.585,258.956,168.521z M266.52,188.287
		c-3.294,6.104-8.697,9.576-12.069,7.758c-3.368-1.821-3.429-8.241-0.134-14.346c3.293-6.104,8.692-9.574,12.062-7.756
		C269.749,175.763,269.813,182.183,266.52,188.287z"/>
	<polygon fill-rule="evenodd" clip-rule="evenodd" fill="#FFFFFF" points="287.487,165.746 280.354,202.065 289.467,202.065 
		296.601,165.746 	"/>
	<circle fill-rule="evenodd" clip-rule="evenodd" fill="#FFFFFF" cx="294.427" cy="156.451" r="4.962"/>
	<polygon fill-rule="evenodd" clip-rule="evenodd" fill="#FFFFFF" points="306.521,218.026 299.389,257.362 308.503,257.362 
		315.635,218.026 	"/>
	<circle fill-rule="evenodd" clip-rule="evenodd" fill="#FFFFFF" cx="313.462" cy="208.76" r="4.962"/>
	<path fill-rule="evenodd" clip-rule="evenodd" fill="#FFFFFF" d="M307.348,201.869c-5.655,0.094-8.782-2.615-7.771-8.341
		c2.192-12.297,4.7-24.541,7.29-36.761c0.708-3.332,2.188-7.325,6.577-5.857c4.553,1.521,1.787,5.577,1.689,8.707
		c-0.4,12.451-10.414,24.146-2.525,37.42C314.078,199.518,310.681,201.849,307.348,201.869z"/>
	<path fill-rule="evenodd" clip-rule="evenodd" fill="#FFFFFF" d="M338.65,184.489c4.061-2.965,7.704-5.218,7.451-10.528
		c-0.209-4.535-2.745-7.932-7.367-8.443c-9.375-1.031-15.483,3.981-19.281,11.983c-3.631,7.646-5.72,16.028,0.944,22.7
		c7.28,7.283,14.371,3.757,21.956-2.857c-6.331-3.478-16.19,3.655-17.085-6.016C324.412,182.081,334.288,187.682,338.65,184.489z
		 M328.301,175.959c1.387-2.863,3.751-4.021,6.709-3.42c1.365,0.279,3.402,0.894,2.364,3.298c-1.271,3.1-3.916,3.664-6.742,3.184
		C329.389,178.807,327.057,178.545,328.301,175.959z"/>
	<path fill-rule="evenodd" clip-rule="evenodd" fill="#FFFFFF" d="M192.08,209.242c-5.186-6.289-12.762-4.895-19.767-4.797
		c-7.271,0.11-7.823,5.508-8.845,10.918c-1.852,9.831-3.954,19.62-6.273,29.349c-2.285,9.593-0.427,15.241,9.53,12.958
		c19.279-0.262,24.626-6.659,21.919-25.315c-0.452-3.128-0.822-4.787,1.867-7.303C195.225,220.631,196.551,214.664,192.08,209.242z
		 M172.172,250.392c-3.806,0.267-7.749-0.765-6.121-5.764c1.421-4.369-1.071-11.635,6.836-11.849
		c5.221,0.133,8.587,2.137,8.755,7.201C181.854,246.293,178.442,249.943,172.172,250.392z M178.705,225.305
		c-5.425,0.496-8.258-0.25-7.657-5.233c0.49-4.037,0.548-8.247,6.149-8.438c3.571-0.12,7.088,0.307,7.79,4.672
		C185.933,222.188,181.838,224.121,178.705,225.305z"/>
	<path fill-rule="evenodd" clip-rule="evenodd" fill="#FFFFFF" d="M226.043,219.995c-5.793-3.578-12.604-1.89-18.299,1.956
		c-9.361,6.313-11.688,15.891-10.893,26.286c0.304,3.971,2.387,8.381,7.189,8.971c4.655,0.565,9.167-0.173,9.301-6.25
		c-0.128-0.129-0.258-0.254-0.386-0.385c-0.058-0.123-0.088-0.242-0.137-0.365c-7.447,0.247-7.04-5.052-6.675-10.279
		c0.375-5.417,1.997-10.484,7.038-13.064c3.522-1.805,7.395-0.987,6.158,4.186c-1.53,6.396-4.001,12.564-6.125,18.814
		c0.063,0.121,0.102,0.242,0.169,0.363c0.012,0.271-0.035,0.477-0.042,0.73c6.269,6.237,11.854,10.861,11.693-4.184
		c-0.042-4.015,1.913-8.02,2.305-12.089C227.823,229.691,231.539,223.384,226.043,219.995z"/>
	<path fill-rule="evenodd" clip-rule="evenodd" fill="#FFFFFF" d="M237.159,219.635h7.132v4.358c0,0,15.453-12.68,18.625,3.964
		l-5.149,29.405h-9.116l5.105-29.405c0,0-8.622-6.281-12.015,9.737l-2.996,19.667h-9.731L237.159,219.635z"/>
	<path fill-rule="evenodd" clip-rule="evenodd" fill="#FFFFFF" d="M324.198,218.964h7.134v4.357c0,0,15.451-12.68,18.624,3.964
		l-5.151,29.405h-9.115l5.105-29.405c0,0-8.622-6.281-12.015,9.738l-2.996,19.667h-9.731L324.198,218.964z"/>
	<polygon fill-rule="evenodd" clip-rule="evenodd" fill="#FFFFFF" points="275.719,206.559 283.522,206.559 279.622,231.209 
		292.241,219.37 302.545,219.37 286.299,237.693 294.427,257.362 283.921,257.362 278.372,240.637 275.719,256.691 266.483,256.691 
			"/>
	<path fill-rule="evenodd" clip-rule="evenodd" fill="#FFFFFF" d="M354.426,241.127c0,0-3.62,25.039,18.101,11.492
		c0,0-0.903,18.888-18.327,8.212l-3.847,6.977c0,0,12.668,12.728,26.697-3.282c0,0,6.335-11.905,9.503-43.104
		C386.553,221.421,366.19,210.338,354.426,241.127z M376.321,241.429c-2.364,5.896-7.123,9.536-10.625,8.132
		c-3.499-1.404-4.419-7.323-2.054-13.222c2.369-5.897,7.126-9.536,10.629-8.131C377.771,229.612,378.69,235.531,376.321,241.429z"/>
	<polygon fill-rule="evenodd" clip-rule="evenodd" fill="#FFFFFF" points="28.522,291.971 52.297,291.971 73.393,332.852 
		93.313,291.971 115.305,291.971 109.956,296.131 115.305,361.516 121.844,366.271 96.879,366.271 101.634,361.516 98.662,313.962 
		71.65,365.219 43.977,310.396 38.033,361.516 45.165,366.864 17.822,366.271 25.549,358.544 33.872,300.291 	"/>
	<path fill-rule="evenodd" clip-rule="evenodd" fill="#FFFFFF" d="M205.655,366.864l-8.949-6.537l-24.931-68.356h-24.967l6.539,8.32
		l-23.182,58.847l-8.322,7.134l24.37,0.593l-1.783-5.942l8.322-21.4h22.82l6.9,20.806l-6.242,6.537H205.655z M152.753,329.418
		l7.728-20.805l8.322,20.805H152.753z"/>
	<path fill-rule="evenodd" clip-rule="evenodd" fill="#FFFFFF" d="M488,366.864l-8.949-6.537l-24.933-68.356h-24.965l6.539,8.32
		l-23.182,58.847l-8.322,7.134l24.37,0.593l-1.783-5.942l8.322-21.4h22.82l6.9,20.806l-6.241,6.537H488z M435.098,329.418
		l7.728-20.805l8.321,20.805H435.098z"/>
	<polygon fill-rule="evenodd" clip-rule="evenodd" fill="#FFFFFF" points="182.474,291.971 205.655,291.971 226.365,321.096 
		241.741,297.319 233.593,291.971 257.369,291.971 231.81,332.39 231.81,360.327 241.741,366.864 208.628,366.864 216.355,359.138 
		216.355,332.984 194.824,300.291 	"/>
	<path fill-rule="evenodd" clip-rule="evenodd" fill="#FFFFFF" d="M294.828,289.592c-23.314,0-42.215,17.563-42.215,39.231
		s18.9,39.231,42.215,39.231c23.313,0,42.213-17.563,42.213-39.231S318.142,289.592,294.828,289.592z M295.899,357.594
		c-15.223,0-27.562-13.274-27.562-29.65c0-16.377,12.339-29.65,27.562-29.65c15.219,0,27.559,13.273,27.559,29.65
		C323.458,344.319,311.118,357.594,295.899,357.594z"/>
	<path fill-rule="evenodd" clip-rule="evenodd" fill="#FFFFFF" d="M386.544,366.271h17.645l-5.947-4.756l-23.192-32.098
		c11.894-4.756,14.867-13.078,14.867-13.078c5.352-20.209-16.057-24.369-16.057-24.369h-36.85l9.075,8.32v60.631l-9.075,5.942
		h31.429l-9.446-5.942v-31.504L386.544,366.271z M356.018,320.501v-17.832c22.6-0.594,20.814,8.917,20.814,8.917
		C369.411,326.288,356.018,320.501,356.018,320.501z"/>
	<path fill-rule="evenodd" clip-rule="evenodd" fill="#FFFFFF" d="M135.319,132.073l-49.536-4.358
		c-19.815,0-19.814,11.492-19.814,11.492l-2.774,32.097c-31.306-3.963-29.323,8.719-29.323,8.719l-5.152,39.457
		c-3.964,19.643,25.363,18.214,25.363,18.214l-1.586,16.434c-1.983,21.004,10.699,20.211,10.699,20.211l49.931,4.357
		c20.21-0.396,20.21-17.436,20.21-17.436l4.359-49.93l-26.153-35.27c-5.547-5.944-1.189-10.676-1.189-10.676
		c8.718-6.319,11.492,0.362,11.492,0.362l21.002,25.769l2.774-25.769C149.583,130.862,135.319,132.073,135.319,132.073z
		 M47.957,177.564l25.173,2.357c3.507,0.328,6.083,3.439,5.757,6.944c-0.33,3.51-3.439,6.084-6.948,5.757l-25.177-2.356
		c-3.505-0.328-6.083-3.438-5.753-6.945C41.336,179.814,44.448,177.238,47.957,177.564z M46.205,195.993l25.177,2.356
		c3.505,0.331,6.086,3.439,5.753,6.948c-0.328,3.507-3.437,6.083-6.943,5.756l-25.175-2.356c-3.51-0.331-6.086-3.441-5.756-6.945
		C39.59,198.243,42.699,195.668,46.205,195.993z M43.178,228.572c-3.507-0.33-6.083-3.437-5.757-6.945
		c0.331-3.507,3.441-6.086,6.948-5.757l25.177,2.355c3.505,0.329,6.083,3.438,5.754,6.944c-0.328,3.508-3.44,6.086-6.945,5.758
		L43.178,228.572z M137.298,168.135l-12.285-12.877c0,0-9.114-6.541-18.624,3.367c0,0-10.07,7.776-2.262,18.551l26.039,36.546
		l-5.152,51.897c0,0-2.774,7.135-14.266,5.152l-40.915-3.965c0,0-14.565,0-10.205-16.643l1.586-11.798
		c0,0,17.833,3.525,17.833-6.406l5.546-47.145c0,0,4.161-11.13-14.76-10.338l3.27-31.307c0,0-0.003-9.114,25.756-6.736l31.307,3.961
		C130.166,140.396,142.055,140.396,137.298,168.135z"/>
</g>
</svg>
