<?xml version="1.0" encoding="utf-8"?>
<!-- Generator: Adobe Illustrator 16.0.0, SVG Export Plug-In . SVG Version: 6.00 Build 0)  -->
<!DOCTYPE svg PUBLIC "-//W3C//DTD SVG 1.1//EN" "http://www.w3.org/Graphics/SVG/1.1/DTD/svg11.dtd">
<svg version="1.1" id="Layer_1" xmlns="http://www.w3.org/2000/svg" xmlns:xlink="http://www.w3.org/1999/xlink" x="0px" y="0px"
	 width="500px" height="500px" viewBox="0 0 500 500" enable-background="new 0 0 500 500" xml:space="preserve">
<path fill="#FFFFFF" d="M466.379,429.864c-49.229-48.306-98.323-96.742-147.531-145.067c-2.281-2.24-2.197-3.566-0.372-6.056
	c20.23-27.568,30.271-58.538,30.58-95.404c-0.5-40.61-15.532-78.103-46.178-108.661c-49.228-49.088-123.159-59.682-184.78-27.238
	C31.73,92.911,8.22,208.84,70.037,284.422c48.375,59.146,129.899,75.361,197.07,39.154c2.383-1.283,3.979-1.793,6.359,0.578
	c21.947,21.873,44.081,43.558,66.152,65.306c28.598,28.178,57.22,56.33,85.719,84.605c2.475,2.453,3.774,2.521,6.21,0.001
	c11.572-11.981,23.136-23.99,35.174-35.496C470.702,434.768,469.637,433.06,466.379,429.864z M192.251,282.627
	c-53.73,0.055-96.998-43.35-96.926-97.229c0.072-53.535,43.584-96.447,97.725-96.375c52.871,0.069,95.896,43.672,95.882,97.167
	C288.916,239.288,245.521,282.574,192.251,282.627z"/>
</svg>
