<?xml version="1.0" encoding="utf-8"?>
<!-- Generator: Adobe Illustrator 16.0.0, SVG Export Plug-In . SVG Version: 6.00 Build 0)  -->
<!DOCTYPE svg PUBLIC "-//W3C//DTD SVG 1.1//EN" "http://www.w3.org/Graphics/SVG/1.1/DTD/svg11.dtd">
<svg version="1.1" id="Layer_1" xmlns="http://www.w3.org/2000/svg" xmlns:xlink="http://www.w3.org/1999/xlink" x="0px" y="0px"
	 width="500px" height="500px" viewBox="0 0 500 500" enable-background="new 0 0 500 500" xml:space="preserve">
<path fill-rule="evenodd" clip-rule="evenodd" fill="#A61E22" d="M201.812,78.326c-2.285-12.292-1.097-24.451-0.979-36.537
	c0.062-6.315,5.675-11.008,12.664-11.049c28.148-0.166,56.298-0.201,84.447,0.026c8.147,0.065,12.631,5.341,12.673,13.579
	c0.042,8.162,0.015,16.324,0.007,24.485c-0.003,2.99,0.294,6.028-2.239,9.495c2.649,0,4.354,0,6.057,0
	c30.481,0,60.963-0.004,91.443,0.003c9.939,0.003,15.441,5.202,15.674,15.231c0.209,8.989,0.221,17.992-0.005,26.981
	c-0.249,9.983-5.754,15.104-15.725,15.104c-99.605,0.001-199.211-0.124-298.815,0.17c-11.525,0.034-15.97-7.389-16.268-15.346
	c-0.335-8.982-0.375-17.999,0.012-26.977c0.34-7.892,4.628-15.511,16.354-15.324c29.808,0.474,59.627,0.157,89.443,0.157
	C198.35,78.326,200.147,78.326,201.812,78.326z"/>
<path fill-rule="evenodd" clip-rule="evenodd" fill="#A61E22" d="M387.215,146.326c-87.308-0.015-174.617-0.017-261.925,0.002
	c-11.042,0.003-15.333,4.385-15.333,15.487c-0.005,98.64-0.004,197.277,0,295.916c0,10.861,4.315,15.238,15.031,15.238
	c87.641,0.006,175.282,0.006,262.924-0.001c10.077,0,14.535-4.514,14.536-14.672c0.004-49.485,0.002-98.972,0.002-148.458
	c0-49.318,0.001-98.638,0-147.957C402.448,150.743,398.175,146.328,387.215,146.326z M217.867,445.299
	c-6.412,2.829-13.413,2.9-19.791-0.259c-4.575-2.268-5.832-6.743-5.819-11.836c0.099-40.81,0.055-81.622,0.055-122.434
	c0-40.478-0.004-80.956,0.003-121.434c0.001-9.907,4.353-14.257,14.287-14.323c1.999-0.013,4.006-0.107,5.995,0.036
	c6.503,0.47,11.079,4.929,11.777,11.449c0.159,1.484,0.093,2.995,0.093,4.494c0.004,79.957-0.018,159.914,0.045,239.871
	C224.519,436.845,223.872,442.649,217.867,445.299z M326.621,431.71c0,11.163-4.104,15.198-15.438,15.201
	c-1.333,0.001-2.667,0.045-3.997-0.01c-7.817-0.318-12.694-5.176-12.698-13.053c-0.038-81.954-0.04-163.909,0.002-245.863
	c0.005-7.833,4.944-12.676,12.791-12.962c1.829-0.067,3.664-0.03,5.496-0.009c9.176,0.108,13.833,4.717,13.838,13.831
	c0.02,40.81,0.008,81.621,0.009,122.432C326.623,351.421,326.624,391.565,326.621,431.71z"/>
</svg>
